/Users/marc/Projets/desktop_cryptoclicker/src/main/java/com/intech/desktop/SaveData.java
/Users/marc/Projets/desktop_cryptoclicker/src/main/java/com/intech/desktop/DesktopController.java
/Users/marc/Projets/desktop_cryptoclicker/src/main/java/com/intech/desktop/Bootstrap.java
